…
Therefore, if \(800\) seeds were counted on a grid on a particular trip,
this will equate to \(4000 m^2\).

### Find extra trips and grids

### Remove additional data

## Final seed dataset

This is the full raw data reduction for the publication and in all the
analysis. This data is lagged by a single trip (as a proxy for seed to
“intake rate” relationship). Descriptive plots can be found in
appendix.

    # A tibble: 144 x 13
    # Groups:   grid, year [44]
       valley   red silver seedm2 grid.id grid  trip.no  year month total
       <chr>  <dbl>  <dbl>  <dbl> <chr>   <chr>   <dbl> <dbl> <fct> <dbl>
     1 egl       81     31  591.  M1      egl ~       1  1999 May     116
     2 egl        5      1   30.6 M1      egl ~       2  1999 Aug       6
     3 egl        1      0   10.2 M1      egl ~       3  1999 Nov       2
     4 egl        0      0   20.4 M1      egl ~       4  2000 Feb       4
     5 egl      222     31 1304.  M1      egl ~       5  2000 May     256
     6 egl       48     26  377.  M1      egl ~       6  2000 Aug      74
     7 egl        1      2   15.3 M1      egl ~       7  2000 Nov       3
     8 egl        0      0    0   M1      egl ~       8  2001 Feb       0
     9 egl        0      0    0   M1      egl ~       9  2001 May       0
    10 egl        0      0    0   M1      egl ~      10  2001 Aug       0
    # ... with 134 more rows, and 3 more variables: cum.seed <dbl>,
    #   trip <dbl>, log.cum.seed <dbl>
…
#### Naming variable

#### Extract only N

## Restructuring dataset

### Adding grouping variables

### Reduced seed joining dataset

Check the structure of this to make sure that the variables being joined
are being correctly merged.

    # A tibble: 144 x 6
    # Groups:   grid, year [44]
       grid    trip  year month cum.seed valley
       <chr>  <dbl> <dbl> <fct>    <dbl> <chr> 
     1 egl M1     1  1999 May      591.  egl   
     2 egl M1     2  1999 Aug      621.  egl   
     3 egl M1     3  1999 Nov      632.  egl   
     4 egl M1     4  2000 Feb       20.4 egl   
     5 egl M1     5  2000 May     1324.  egl   
     6 egl M1     6  2000 Aug     1701.  egl   
     7 egl M1     7  2000 Nov     1716.  egl   
     8 egl M1     8  2001 Feb        0   egl   
     9 egl M1     9  2001 May        0   egl   
    10 egl M1    10  2001 Aug        0   egl   
    # ... with 134 more rows
…
